3707            
4               
12              
0               
1               
10              
17409           
0               
0               
0               
17413           
32              
2               
6               
0               
1               

// Volume Independent Parameters
1               
0               
0               
0               
0               
0               
0               
0               
0               
1               
20              
5               
50              
5000            
-96             
-80             
-50             
-26             
0               
-96             
-78             
-40             
-26             
-20             
1               
7               
32              
32              
32              
32              
32              
32              
32              
32              
32              
30              
28              
30              
34              
38              
39              
38              
36              
34              
33              
31              
28              
25              
22              
21              
23              
26              
28              
28              
29              
29              
31              
31              
32              
31              
33              
35              
40              
45              
47              
47              
49              
51              
51              
51              
51              
51              
51              
51              
51              
51              
51              
51              
51              
51              
51              
51              
51              
51              
51              
51              
48              
44              
41              
41              
41              
41              
40              
39              
38              
37              
35              
33              
32              
31              
30              
29              
28              
28              
28              
28              
28              
28              
27              
27              
27              
27              
27              
27              
27              
27              
28              
28              
28              
28              
28              
28              
28              
28              
28              
29              
29              
30              
31              
31              
32              
33              
34              
35              
37              
38              
39              
41              
42              
43              
43              
43              
43              
43              
42              
41              
40              
39              
38              
37              
35              
34              
33              
32              
32              
31              
30              
29              
28              
28              
27              
27              
27              
26              
26              
26              
26              
25              
25              
25              
25              
25              
25              
25              
24              
24              
23              
23              
22              
22              
21              
21              
21              
20              
20              
19              
19              
18              
18              
18              
18              
18              
18              
17              
17              
17              
17              
17              
17              
18              
18              
18              
18              
18              
19              
19              
19              
19              
19              
20              
20              
20              
20              
20              
20              
20              
20              
20              
20              
20              
20              
20              
19              
19              
18              
18              
18              
18              
17              
17              
17              
16              
16              
15              
15              
15              
15              
14              
14              
14              
13              
13              
13              
12              
12              
12              
11              
11              
11              
11              
10              
10              
10              
10              
10              
9               
9               
9               
9               
9               
9               
9               
9               
9               
8               
8               
8               
8               
8               
7               
7               
7               
7               
6               
6               
6               
6               
6               
6               
5               
5               
5               
5               
5               
5               
5               
5               
5               
5               
5               
5               
5               
5               
5               
6               
6               
6               
6               
6               
6               
7               
7               
7               
7               
7               
8               
8               
8               
8               
9               
9               
9               
9               
10              
10              
10              
11              
11              
11              
11              
12              
12              
12              
12              
12              
12              
12              
12              
12              
12              
11              
11              
11              
10              
10              
10              
9               
9               
9               
8               
8               
8               
7               
7               
7               
7               
7               
7               
7               
6               
6               
6               
6               
6               
6               
6               
6               
6               
6               
6               
6               
6               
6               
5               
5               
5               
5               
5               
5               
5               
5               
5               
5               
4               
4               
4               
4               
4               
4               
4               
4               
4               
4               
4               
4               
4               
4               
4               
4               
4               
4               
4               
4               
4               
4               
4               
4               
4               
4               
4               
4               
4               
4               
3               
3               
3               
3               
3               
3               
3               
3               
3               
3               
2               
2               
2               
2               
2               
2               
2               
2               
2               
2               
2               
2               
2               
2               
2               
2               
1               
1               
1               
1               
1               
1               
1               
1               
1               
1               
1               
1               
1               
1               
1               
1               
2               
2               
2               
2               
2               
2               
2               
2               
2               
2               
2               
2               
2               
2               
3               
3               
3               
3               
3               
3               
3               
3               
3               
3               
4               
4               
4               
4               
4               
4               
4               
4               
4               
4               
4               
4               
5               
5               
5               
5               
5               
5               
5               
5               
5               
5               
5               
5               
5               
5               
6               
6               
6               
6               
6               
6               
6               
6               
6               
6               
6               
6               
5               
5               
5               
5               
5               
5               
5               
5               
5               
5               
5               
5               
5               
5               
5               
5               
5               
5               
5               
5               
5               
5               
5               
5               
5               
5               
5               
5               
5               
5               
5               
5               
6               
7               
10              
16              
20              
18              
14              
11              
9               
8               
9               
11              
12              
12              
12              
13              
14              
14              
13              
11              
11              
13              
12              
9               
9               
9               
9               
9               
9               
8               
9               
9               
9               
9               
9               
10              
10              
10              
9               
7               
6               
5               
5               
5               
5               
5               
6               
7               
8               
8               
8               
8               
8               
8               
8               
8               
8               
8               
8               
8               
8               
8               
8               
8               
8               
9               
9               
32              
32              
32              
32              
32              
32              
32              
32              
32              
27              
25              
27              
32              
37              
38              
37              
36              
36              
36              
32              
28              
23              
20              
18              
19              
20              
22              
24              
24              
25              
27              
28              
27              
23              
22              
24              
29              
35              
39              
41              
39              
37              
34              
33              
34              
36              
38              
38              
37              
38              
40              
40              
38              
37              
37              
39              
39              
39              
38              
38              
37              
37              
37              
37              
37              
37              
37              
38              
38              
39              
39              
39              
38              
37              
36              
35              
34              
34              
33              
32              
32              
31              
31              
30              
29              
29              
28              
28              
27              
27              
28              
28              
28              
29              
30              
30              
31              
31              
32              
33              
34              
35              
36              
37              
38              
39              
40              
41              
42              
43              
44              
46              
47              
49              
50              
51              
51              
51              
51              
51              
51              
51              
51              
50              
49              
48              
46              
45              
44              
42              
40              
38              
37              
35              
33              
32              
30              
28              
27              
26              
24              
23              
22              
22              
21              
20              
20              
19              
19              
19              
19              
18              
18              
18              
18              
18              
18              
18              
18              
18              
18              
18              
18              
18              
17              
17              
17              
17              
17              
16              
16              
16              
16              
16              
16              
16              
16              
16              
16              
17              
17              
17              
17              
17              
18              
18              
18              
18              
19              
19              
19              
19              
19              
19              
19              
19              
19              
19              
19              
19              
19              
18              
18              
18              
18              
18              
18              
18              
17              
17              
17              
17              
17              
17              
17              
17              
17              
16              
16              
16              
16              
15              
15              
15              
14              
14              
14              
13              
13              
12              
12              
12              
12              
12              
12              
11              
11              
11              
11              
11              
11              
11              
11              
10              
10              
10              
10              
9               
9               
9               
8               
8               
8               
7               
7               
7               
7               
7               
6               
6               
6               
6               
6               
6               
6               
6               
6               
6               
6               
6               
6               
6               
6               
6               
6               
6               
6               
6               
6               
6               
6               
6               
6               
6               
6               
6               
6               
7               
7               
7               
7               
7               
8               
8               
8               
8               
9               
9               
9               
9               
9               
10              
10              
10              
9               
9               
9               
9               
8               
8               
8               
7               
7               
6               
6               
6               
6               
5               
5               
5               
5               
4               
4               
4               
4               
4               
4               
4               
4               
4               
4               
4               
4               
4               
4               
3               
3               
3               
3               
3               
3               
3               
3               
3               
3               
3               
3               
3               
3               
3               
3               
3               
3               
3               
3               
3               
3               
3               
3               
3               
3               
3               
3               
3               
3               
3               
3               
3               
3               
3               
3               
3               
3               
3               
3               
3               
3               
3               
3               
3               
3               
3               
3               
3               
3               
3               
3               
3               
3               
3               
3               
3               
3               
3               
3               
2               
2               
2               
2               
2               
2               
2               
2               
2               
2               
2               
2               
2               
2               
2               
2               
2               
2               
2               
2               
2               
2               
2               
2               
2               
2               
2               
2               
2               
2               
2               
2               
2               
2               
3               
3               
3               
3               
3               
3               
3               
3               
3               
3               
4               
4               
4               
4               
4               
5               
5               
5               
5               
6               
6               
6               
7               
7               
7               
7               
7               
7               
8               
8               
8               
8               
8               
8               
8               
8               
8               
8               
8               
8               
8               
8               
8               
8               
8               
8               
8               
8               
8               
8               
8               
8               
8               
8               
8               
7               
7               
7               
7               
7               
7               
7               
6               
6               
6               
6               
6               
6               
6               
6               
6               
6               
6               
6               
6               
6               
6               
6               
6               
6               
6               
6               
6               
6               
6               
9               
12              
14              
17              
19              
19              
15              
11              
9               
10              
9               
10              
11              
13              
16              
18              
18              
16              
12              
10              
8               
8               
8               
9               
9               
10              
10              
9               
8               
9               
9               
9               
9               
8               
9               
10              
10              
8               
7               
7               
7               
6               
4               
4               
3               
4               
4               
4               
4               
4               
4               
4               
4               
4               
4               
4               
4               
4               
4               
4               
4               
4               
4               
4               
8               
8               
32              
32              
32              
32              
32              
32              
32              
32              
32              
32              
32              
32              
32              
32              
32              
32              
32              
32              
32              
32              
32              
32              
32              
32              
32              
32              
32              
32              
32              
32              
32              
32              
32              
32              
32              
32              
32              
32              
32              
32              
32              
32              
32              
32              
32              
32              
32              
32              
32              
32              
32              
32              
32              
32              
32              
32              
32              
32              
32              
32              
32              
32              
32              
32              
32              
32              
32              
32              
32              
32              
32              
32              
32              
32              
32              
32              
32              
32              
32              
32              
32              
32              
32              
32              
32              
32              
32              
32              
32              
32              
32              
32              
32              
32              
32              
32              
32              
32              
32              
32              
32              
32              
32              
32              
32              
32              
32              
32              
32              
32              
32              
32              
32              
32              
32              
32              
32              
32              
32              
32              
32              
32              
32              
32              
32              
32              
32              
32              
32              
32              
32              
32              
32              
32              
32              
32              
32              
32              
32              
32              
32              
32              
32              
32              
32              
32              
32              
32              
32              
32              
32              
32              
32              
32              
32              
32              
32              
32              
32              
32              
32              
32              
32              
32              
32              
32              
32              
32              
32              
32              
32              
32              
32              
32              
32              
32              
32              
32              
32              
32              
32              
32              
32              
32              
32              
32              
32              
32              
32              
32              
32              
32              
32              
32              
32              
32              
32              
32              
32              
32              
32              
32              
32              
32              
32              
32              
32              
32              
32              
32              
32              
32              
32              
32              
32              
32              
32              
32              
32              
32              
32              
32              
32              
32              
32              
32              
32              
32              
32              
32              
32              
32              
32              
32              
32              
32              
32              
32              
32              
32              
32              
32              
32              
32              
32              
32              
32              
32              
32              
32              
32              
32              
32              
32              
32              
32              
32              
32              
32              
32              
32              
32              
32              
32              
32              
32              
32              
32              
32              
32              
32              
32              
32              
32              
32              
32              
32              
32              
32              
32              
32              
32              
32              
32              
32              
32              
32              
32              
32              
32              
32              
32              
32              
32              
32              
32              
32              
32              
32              
32              
32              
32              
32              
32              
32              
32              
32              
32              
32              
32              
32              
32              
32              
32              
32              
32              
32              
32              
32              
32              
32              
32              
32              
32              
32              
32              
32              
32              
32              
32              
32              
32              
32              
32              
32              
32              
32              
32              
32              
32              
32              
32              
32              
32              
32              
32              
32              
32              
32              
32              
32              
32              
32              
32              
32              
32              
32              
32              
32              
32              
32              
32              
32              
32              
32              
32              
32              
32              
32              
32              
32              
32              
32              
32              
32              
32              
32              
32              
32              
32              
32              
32              
32              
32              
32              
32              
32              
32              
32              
32              
32              
32              
32              
32              
32              
32              
32              
32              
32              
32              
32              
32              
32              
32              
32              
32              
32              
32              
32              
32              
32              
32              
32              
32              
32              
32              
32              
32              
32              
32              
32              
32              
32              
32              
32              
32              
32              
32              
32              
32              
32              
32              
32              
32              
32              
32              
32              
32              
32              
32              
32              
32              
32              
32              
32              
32              
32              
32              
32              
32              
32              
32              
32              
32              
32              
32              
32              
32              
32              
32              
32              
32              
32              
32              
32              
32              
32              
32              
32              
32              
32              
32              
32              
32              
32              
32              
32              
32              
32              
32              
32              
32              
32              
32              
32              
32              
32              
32              
32              
32              
32              
32              
32              
32              
32              
32              
32              
32              
32              
32              
32              
32              
32              
32              
32              
32              
32              
32              
32              
32              
32              
32              
32              
32              
32              
32              
32              
32              
32              
32              
32              
32              
32              
32              
32              
32              
32              
32              
32              
32              
32              
32              
32              
32              
32              
32              
32              
32              
32              
32              
32              
32              
32              
32              
32              
32              
32              
32              
32              
32              
32              
32              
32              
32              
32              
32              
32              
32              
32              
32              
32              
32              
32              
32              
32              
32              
32              
32              
32              
32              
32              
32              
32              
32              
32              
32              
32              
32              
32              
32              
32              
32              
32              
32              
32              
32              
32              
32              
32              
32              
32              
32              
32              
32              
32              
32              
32              
32              
32              
32              
32              
32              
32              
32              
32              
32              
32              
32              
32              
32              
32              
32              
32              
32              
32              
32              
32              
32              
32              
32              
32              
32              
32              
32              
32              
32              
32              
32              
32              
32              
32              
32              
32              
32              
32              
32              
32              
32              
32              
32              
32              
32              
32              
32              
32              
32              
32              
32              
32              
32              
32              
32              
32              
32              
32              
32              
32              
32              
32              
32              
32              
32              
32              
32              
32              
32              
32              
32              
32              
32              
32              
32              
32              
32              
32              
32              
32              
32              
32              
32              
32              
32              
32              
32              
32              
32              
32              
32              
32              
32              
32              
32              
32              
32              
32              
32              
32              
32              
32              
32              
32              
32              
32              
32              
32              
32              
32              
32              
32              
32              
32              
32              
32              
32              
32              
32              
32              
32              
32              
32              
32              
32              
32              
32              
32              
32              
32              
32              
32              
32              
32              
32              
32              
32              
32              
32              
32              
32              
32              
32              
32              
32              
32              
32              
32              
32              
32              
32              
32              
32              
32              
32              
32              
32              
32              
32              
32              
32              
32              
32              
32              
32              
32              
32              
32              
32              
32              
32              
32              
32              
32              
32              
32              
32              
32              
32              
32              
32              
32              
32              
32              
32              
32              
32              
32              
32              
32              
32              
32              
32              
32              
32              
32              
32              
32              
32              
32              
32              
32              
32              
32              
32              
32              
32              
32              
32              
32              
32              
32              
32              
32              
32              
32              
32              
32              
32              
32              
32              
32              
32              
32              
32              
32              
32              
32              
32              
32              
32              
32              
32              
32              
32              
32              
32              
32              
32              
32              
32              
32              
32              
32              
32              
32              
32              
32              
32              
32              
32              
32              
32              
32              
32              
32              
32              
32              
32              
32              
32              
32              
32              
32              
32              
32              
32              
32              
32              
32              
32              
32              
32              
32              
32              
32              
32              
32              
32              
32              
32              
32              
32              
32              
32              
32              
32              
32              
32              
32              
32              
32              
32              
32              
32              
32              
32              
32              
32              
32              
32              
32              
32              
32              
32              
32              
32              
32              
32              
32              
32              
32              
32              
32              
32              
32              
32              
32              
32              
32              
32              
32              
32              
32              
32              
32              
32              
32              
32              
32              
32              
32              
32              
32              
32              
32              
32              
32              
32              
32              
32              
32              
32              
32              
32              
32              
32              
32              
32              
32              
32              
32              
32              
32              
32              
32              
32              
32              
32              
32              
32              
32              
32              
32              
32              
32              
32              
32              
32              
32              
32              
32              
32              
32              
32              
32              
32              
32              
32              
32              
32              
32              
32              
32              
32              
32              
32              
32              
32              
32              
32              
32              
32              
32              
32              
32              
32              
32              
32              
32              
32              
32              
32              
32              
32              
32              
32              
32              
32              
32              
32              
32              
32              
32              
32              
32              
32              
32              
32              
32              
32              
32              
32              
32              
32              
32              
32              
32              
32              
32              
32              
32              
32              
32              
32              
32              
32              
32              
32              
32              
32              
32              
32              
32              
32              
32              
32              
32              
32              
32              
32              
32              
32              
32              
32              
32              
32              
32              
32              
32              
32              
32              
32              
32              
32              
32              
32              
32              
32              
32              
32              
32              
32              
32              
32              
32              
32              
32              
32              
32              
32              
32              
32              
32              
32              
32              
32              
32              
32              
32              
32              
32              
32              
32              
32              
32              
32              
32              
32              
32              
32              
32              
32              
32              
32              
32              
32              
32              
32              
32              
32              
32              
32              
32              
32              
32              
32              
32              
32              
32              
32              
32              
32              
32              
32              
32              
32              
32              
32              
32              
32              
32              
32              
32              
32              
32              
32              
32              
32              
32              
32              
32              
32              
32              
32              
32              
32              
32              
32              
32              
32              
32              
32              
32              
32              
32              
32              
32              
32              
32              
32              
32              
32              
0               
33              
32767           
30              
100             
50              
50              
-6              
-6              
-12             
-12             
0               
1               
100             
-4              
-4              
32767           
6               
-18             
12              
-74             
-70             
-78             
-82             
-81             
-85             
-88             
-92             
-93             
-94             
-95             
-98             
-99             
-99             
-100            
-101            
-101            
-101            
-101            
-101            
-101            
-102            
-102            
-102            
-103            
-103            
-103            
-103            
-103            
-103            
-104            
-104            
-104            
-104            
-105            
-105            
-105            
-104            
-104            
-105            
-105            
-105            
-106            
-106            
-106            
-106            
-106            
-106            
-106            
-106            
-107            
-107            
-107            
-107            
-107            
-106            
-107            
-107            
-107            
-107            
-107            
-107            
-107            
-107            
-107            
-107            
-107            
-107            
-107            
-108            
-108            
-107            
-108            
-108            
-108            
-107            
-108            
-108            
-108            
-108            
-108            
-107            
-108            
-108            
-108            
-108            
-108            
-108            
-108            
-108            
-108            
-108            
-108            
-108            
-108            
-109            
-109            
-108            
-108            
-108            
-109            
-109            
-109            
-109            
-109            
-109            
-108            
-108            
-108            
-109            
-109            
-108            
-108            
-109            
-109            
-109            
-109            
-109            
-109            
-108            
-108            
-109            
-109            
-109            
-109            
-109            
-109            
-109            
-109            
-109            
-109            
-109            
-109            
-109            
-109            
-109            
-109            
-109            
-109            
-108            
-109            
-109            
-109            
-109            
-108            
-108            
-109            
-109            
-109            
-109            
-109            
-109            
-109            
-109            
-109            
-109            
-109            
-109            
-108            
-108            
-108            
-109            
-109            
-109            
-109            
-109            
-109            
-109            
-109            
-109            
-109            
-109            
-109            
-109            
-109            
-109            
-109            
-109            
-109            
-109            
-109            
-109            
-109            
-109            
-108            
-108            
-109            
-109            
-109            
-108            
-109            
-108            
-109            
-109            
-109            
-109            
-109            
-109            
-109            
-108            
-109            
-109            
-108            
-109            
-109            
-109            
-109            
-109            
-108            
-108            
-109            
-109            
-109            
-108            
-108            
-109            
-109            
-109            
-109            
-109            
-109            
-109            
-109            
-108            
-108            
-108            
-109            
-109            
-109            
-108            
-108            
-108            
-108            
-109            
-108            
-108            
-108            
-109            
-109            
-109            
-108            
-108            
-108            
-108            
-108            
-108            
-108            
-109            
-108            
-109            
-109            
-109            
-108            
-108            
-108            
-108            
-108            
-108            
-108            
-108            
-109            
-109            
-108            
-108            
-108            
-108            
-108            
-108            
-108            
-108            
-107            
-108            
-108            
-107            
-108            
-108            
-108            
-108            
-108            
-108            
-108            
-107            
-107            
-108            
-108            
-108            
-108            
-107            
-108            
-108            
-107            
-107            
-108            
-107            
-107            
-107            
-107            
-107            
-107            
-107            
-107            
-108            
-107            
-107            
-107            
-107            
-107            
-107            
-106            
-107            
-107            
-107            
-107            
-107            
-106            
-106            
-107            
-107            
-107            
-106            
-106            
-106            
-106            
-105            
-106            
-106            
-106            
-106            
-106            
-106            
-106            
-105            
-106            
-106            
-106            
-106            
-106            
-105            
-104            
-105            
-105            
-105            
-105            
-105            
-106            
-105            
-104            
-105            
-105            
-105            
-104            
-104            
-104            
-104            
-104            
-104            
-104            
-104            
-104            
-104            
-104            
-103            
-103            
-103            
-103            
-102            
-103            
-102            
-102            
-102            
-102            
-102            
-102            
-102            
-101            
-101            
-101            
-101            
-101            
-101            
-101            
-100            
-100            
-101            
-101            
-100            
-100            
-100            
-100            
-99             
-99             
-100            
-99             
-99             
-99             
-100            
-100            
-99             
-99             
-100            
-99             
-100            
-100            
-100            
-99             
-100            
-100            
-100            
-100            
-100            
-101            
-101            
-101            
-101            
-101            
-101            
-100            
-101            
-102            
-102            
-102            
-102            
-102            
-103            
-102            
-103            
-103            
-103            
-102            
-103            
-103            
-103            
-103            
-103            
-103            
-104            
-104            
-104            
-104            
-105            
-105            
-104            
-105            
-104            
-105            
-105            
-104            
-105            
-105            
-105            
-105            
-105            
-106            
-106            
-106            
-105            
-106            
-106            
-106            
-106            
-106            
-106            
-106            
-106            
-106            
-107            
-107            
-107            
-106            
-106            
-106            
-107            
-107            
-106            
-107            
-106            
-106            
-107            
-107            
-107            
-107            
-107            
-107            
-107            
-107            
-107            
-106            
-107            
-107            
-107            
-107            
-107            
-108            
-107            
-108            
-108            
-108            
-108            
-107            
-107            
-108            
-108            
-108            
-108            
-108            
-108            
-108            
-108            
-109            
-109            
-110            
-111            
-112            
-74             
-71             
-79             
-82             
-83             
-87             
-87             
-91             
-93             
-93             
-94             
-99             
-99             
-100            
-100            
-101            
-101            
-101            
-100            
-100            
-101            
-102            
-102            
-103            
-103            
-103            
-103            
-103            
-103            
-103            
-103            
-104            
-104            
-104            
-104            
-104            
-104            
-104            
-105            
-105            
-105            
-105            
-105            
-105            
-105            
-106            
-105            
-105            
-106            
-106            
-106            
-106            
-106            
-106            
-106            
-107            
-106            
-106            
-107            
-107            
-107            
-107            
-107            
-107            
-107            
-107            
-107            
-107            
-107            
-107            
-107            
-107            
-107            
-108            
-107            
-107            
-108            
-108            
-108            
-107            
-108            
-108            
-108            
-108            
-107            
-108            
-107            
-107            
-108            
-108            
-108            
-108            
-108            
-108            
-108            
-108            
-108            
-108            
-107            
-107            
-108            
-108            
-108            
-108            
-108            
-108            
-108            
-109            
-108            
-108            
-108            
-108            
-109            
-108            
-108            
-109            
-109            
-109            
-109            
-108            
-108            
-108            
-108            
-109            
-108            
-108            
-108            
-108            
-108            
-108            
-108            
-109            
-109            
-108            
-108            
-108            
-108            
-109            
-108            
-109            
-108            
-108            
-109            
-109            
-108            
-108            
-108            
-108            
-108            
-108            
-108            
-108            
-108            
-108            
-108            
-108            
-108            
-108            
-109            
-109            
-108            
-108            
-108            
-108            
-108            
-108            
-108            
-108            
-108            
-108            
-108            
-108            
-108            
-108            
-107            
-107            
-108            
-108            
-108            
-108            
-108            
-108            
-108            
-108            
-108            
-108            
-108            
-108            
-108            
-108            
-108            
-108            
-109            
-108            
-108            
-109            
-109            
-109            
-109            
-108            
-108            
-108            
-108            
-108            
-108            
-109            
-108            
-108            
-108            
-109            
-109            
-108            
-108            
-108            
-108            
-108            
-108            
-108            
-108            
-108            
-108            
-108            
-108            
-108            
-107            
-108            
-108            
-108            
-108            
-108            
-107            
-107            
-108            
-108            
-108            
-107            
-108            
-108            
-108            
-108            
-107            
-107            
-107            
-108            
-108            
-107            
-107            
-108            
-107            
-107            
-108            
-108            
-108            
-107            
-107            
-107            
-107            
-107            
-107            
-107            
-107            
-107            
-107            
-107            
-106            
-107            
-107            
-107            
-107            
-107            
-107            
-107            
-107            
-107            
-107            
-107            
-106            
-106            
-106            
-107            
-107            
-106            
-106            
-106            
-106            
-106            
-106            
-106            
-107            
-107            
-106            
-105            
-106            
-106            
-106            
-105            
-106            
-106            
-105            
-105            
-105            
-105            
-105            
-105            
-106            
-105            
-105            
-105            
-105            
-105            
-105            
-104            
-104            
-104            
-104            
-104            
-104            
-104            
-104            
-104            
-104            
-103            
-103            
-103            
-104            
-104            
-103            
-103            
-103            
-103            
-103            
-103            
-103            
-103            
-103            
-102            
-102            
-102            
-102            
-102            
-103            
-102            
-102            
-102            
-102            
-102            
-101            
-101            
-101            
-101            
-101            
-101            
-100            
-100            
-100            
-100            
-100            
-99             
-99             
-99             
-98             
-98             
-99             
-98             
-98             
-98             
-97             
-97             
-97             
-97             
-97             
-96             
-97             
-97             
-97             
-96             
-96             
-96             
-96             
-97             
-97             
-98             
-98             
-97             
-97             
-98             
-97             
-98             
-98             
-97             
-98             
-98             
-98             
-98             
-99             
-100            
-99             
-99             
-100            
-100            
-100            
-100            
-100            
-101            
-101            
-100            
-100            
-100            
-101            
-101            
-101            
-101            
-101            
-102            
-102            
-102            
-102            
-102            
-102            
-102            
-103            
-102            
-102            
-103            
-103            
-103            
-104            
-103            
-103            
-104            
-104            
-104            
-104            
-104            
-105            
-105            
-105            
-105            
-105            
-105            
-105            
-105            
-105            
-105            
-105            
-105            
-105            
-105            
-106            
-106            
-105            
-105            
-105            
-106            
-105            
-106            
-106            
-106            
-106            
-106            
-106            
-106            
-106            
-106            
-106            
-106            
-106            
-106            
-106            
-106            
-106            
-107            
-106            
-107            
-107            
-107            
-107            
-106            
-107            
-106            
-106            
-107            
-107            
-106            
-106            
-107            
-107            
-107            
-106            
-107            
-107            
-106            
-106            
-106            
-106            
-106            
-107            
-107            
-106            
-106            
-106            
-106            
-106            
-107            
-107            
-107            
-107            
-107            
-108            
-109            
-109            
-110            
-111            
0               
0               
6               
0               
-15             
1               
0               
-12             
2344            
4687            
0               
-15             
-3              
-20             
1               
9830            
1638            
655             
0               
-20             
0               
-20             
300             
300             
0               
0               
0               
0               
32767           
0               
4               
10976           
0               
-96             
28642           
0               
0               
-13             
27000           
27000           
27000           
27000           
16384           
-12             
-18             
96              
440             
6826            
6826            
6826            
6826            
6826            
0               
1               
20              
-3              
-15             
-15             
1               
0               
-6              
-6              
1000            
1000            
3               
3               
0               
0               
300             
0               
100             
1               
0               
20              
0               
200             
5               
0               
400             
150             
0               
3000            
100             
-1536           
4500            
300             
-1536           
8000            
300             
0               
12000           
150             
0               
15500           
200             
-1024           
1000            
100             
0               
350             
100             
973             
13857           
1000            
0               
15005           
100             
2               
0               
200             
100             
-16             
2000            
100             
-16             
0               
2               
20              
3               
0               
20              
0               
5               
10              
5000            
-96             
-24             
0               
0               
0               
-96             
-24             
-18             
0               
0               
0               
0               
700             
2               
0               
20              
0               
0               
2000            
2000            
-96             
0               
0               
0               
0               
-96             
0               
0               
0               
0               
1               
0               
20              
2               
1               
20              
0               
0               
10000           
10000           
-96             
0               
0               
0               
0               
-96             
0               
0               
0               
0               
1               
0               
20              
2               
1               
20              
0               
0               
10000           
10000           
-96             
0               
0               
0               
0               
-96             
0               
0               
0               
0               
1               
0               
20              
2               
1               
20              
0               
0               
10000           
10000           
-96             
0               
0               
0               
0               
-96             
0               
0               
0               
0               
1               
0               
1               
20              
5               
0               
20              
0               
0               
300             
5000            
-85             
-70             
-40             
-30             
0               
-96             
-70             
-40             
-16             
-16             
0               
0               
1               
-1              
10              
0               
0               
90              
75              
100             
10              
10              
0               
0               
-20             
-20             
-96             
-20             
-6              
3               
50              
200             
10              
0               
0               
0               
0               
0               
0               
0               
0               
165             
0               
0               
0               
0               
0               
0               
0               
0               
1               
2               
1               
0               
0               
0               
0               
0               
-31             
0               
100             
96              
86              
6826            
6826            
6826            
6826            
6826            
6826            
6826            
6826            
6826            
6826            

// Volume 0
